{
  "url": "https://www.booking.com/searchresults.html?label=gen173nr-1DCAEoggI46AdIM1gEaGqIAQGYAQ24AQfIAQ3YAQPoAQGIAgGoAgO4AvGXmucFwAIB&sid=0ec82d3e854b79bab506315a297d19aa&sb=1&src=index&src_elem=sb&error_url=https%3A%2F%2Fwww.booking.com%2Findex.fr.html%3Flabel%3Dgen173nr-1DCAEoggI46AdIM1gEaGqIAQGYAQ24AQfIAQ3YAQPoAQGIAgGoAgO4AvGXmucFwAIB%3Bsid%3D0ec82d3e854b79bab506315a297d19aa%3Bsb_price_type%3Dtotal%3Bsrpvid%3D4dda55b4ef330153%26%3B&ss=Tel+Aviv-Jaffa&is_ski_area=0&ssne=Tel+Aviv-Jaffa&ssne_untouched=Tel+Aviv-Jaffa&dest_id=-781545&lang=en-us&dest_type=city&checkin_year=2019&checkin_month=8&checkin_monthday=25&checkout_year=2019&checkout_month=9&checkout_monthday=1&b_h4u_keep_filters=&from_sf=1",
  "total_pages": 15,
  "results_per_page": 20,
  "unwanted_columns": ["room_type"],
  "database_path": "Booking.sql",
  "mysql_password": "bobo",
  "name_db" : "Booking",
  "filters": {
    "group_adults": null,
    "group_children": null,
    "no_rooms": null
  },
  "flight_parameters": {
    "Origin": "ory",
    "Destination": "tlv",
    "OriginDepartureDate": "20190825",
    "DestinationDepartureDate": "20190901",
    "DirectFlight": "True",
    "Adults": "2"
  }
}
